<svg xmlns="http://www.w3.org/2000/svg" width="127" height="24" viewBox="0 0 127 24">
    <g fill="#1A9F29" fill-rule="nonzero">
        <path d="M33.026 14.713c.522.574 1.148.991 1.93 1.304.783.313 1.67.47 2.766.47.521 0 1.043-.052 1.46-.104.47-.053.835-.157 1.2-.313.366-.105.679-.261.992-.366.26-.156.522-.26.73-.365l-.365-.782-.626.313c-.209.104-.417.156-.678.26-.261.053-.522.157-.835.157-.313.052-.678.052-1.096.052-.782 0-1.46-.156-1.93-.47-.522-.312-.887-.73-1.2-1.2a6.25 6.25 0 0 1-.574-1.826c-.104-.73-.157-1.46-.157-2.295 0-.626.053-1.305.105-1.983a4.68 4.68 0 0 1 .47-1.774c.26-.521.573-.939 1.043-1.304.47-.313 1.096-.522 1.878-.522.73 0 1.357.209 1.878.574.522.365.835.991.992 1.774h.834V3.757c-.26-.105-.521-.21-.834-.314-.313-.104-.626-.156-.992-.208-.365-.052-.678-.052-1.043-.105-.313 0-.626-.052-.887-.052-1.148 0-2.087.157-2.922.47a5.37 5.37 0 0 0-1.982 1.356c-.522.574-.887 1.305-1.148 2.14-.261.834-.365 1.826-.365 2.869 0 .991.104 1.93.365 2.713.156.887.522 1.565.991 2.087zM84.052 16.07a4.441 4.441 0 0 0 1.722-.522c.522-.313.939-.73 1.2-1.305.313-.573.47-1.356.47-2.347 0-.73-.105-1.305-.314-1.826-.208-.522-.521-.887-.99-1.253-.47-.313-1.044-.521-1.775-.678-.73-.156-1.617-.209-2.66-.209h-1.096V4.852c0-.313.052-.522.208-.626.157-.104.418-.104.835-.104h1.565c.47 0 .887 0 1.2.052.313.052.574.104.73.26.21.157.366.366.47.627.105.26.261.626.366 1.096h.678v-2.87h-9.6v.417c.052 0 .104.053.26.053.157.052.262.104.314.156.052.052.104.157.156.313 0 .157.052.313.052.522v9.965c0 .209 0 .417-.052.522 0 .156-.052.26-.156.313-.052.052-.157.156-.313.156-.157.053-.209.053-.261.053v.417h4.852c.783 0 1.46 0 2.14-.104zm-3.182-.94a.474.474 0 0 1-.157-.365c0-.156-.052-.365-.052-.626V8.713h1.096c.99 0 1.721.26 2.139.783.417.521.626 1.356.626 2.504 0 .783-.052 1.357-.209 1.826-.156.47-.313.783-.574 1.044-.26.208-.522.365-.782.47-.314.051-.627.103-.94.103-.313-.052-.574-.052-.73-.104-.157-.052-.313-.104-.417-.209zM70.33 15.757c-.052 0-.104-.053-.26-.053-.157-.052-.261-.104-.313-.156-.053-.052-.105-.157-.157-.313 0-.157-.052-.313-.052-.522v-3.6h1.304c.678 0 1.305-.052 1.93-.156a4.942 4.942 0 0 0 1.618-.574c.47-.313.835-.679 1.096-1.253.26-.521.417-1.252.417-2.139 0-.834-.156-1.513-.365-1.982-.261-.47-.626-.887-1.044-1.148-.417-.261-.939-.418-1.513-.47a19.088 19.088 0 0 0-1.774-.104h-5.112v.417c.052 0 .104.053.26.053.157.052.261.104.313.156.052.052.105.157.157.313 0 .157.052.313.052.522v9.913c0 .209 0 .417-.052.522 0 .156-.052.26-.157.313-.052.052-.156.156-.313.156-.156.052-.208.052-.26.052v.418h4.225v-.365zm-.73-11.01c0-.104 0-.208.052-.312 0-.105.052-.157.105-.209.052-.052.156-.104.313-.104.156 0 .313-.052.573-.052.314 0 .627.052.94.104.313.104.521.26.782.47.209.208.365.521.522.886.104.366.156.835.156 1.357 0 1.096-.156 1.93-.47 2.504-.312.574-.886.887-1.669.887H69.6v-5.53zM64.383 13.2h-.835a9.597 9.597 0 0 1-.313 1.2c-.105.313-.209.522-.418.678-.156.157-.417.261-.73.261-.313.052-.73.052-1.304.052-.522 0-.94 0-1.2-.052-.313-.052-.522-.104-.679-.209-.156-.104-.26-.26-.26-.417-.053-.209-.053-.417-.053-.73v-4.07H60.835c.208 0 .417.052.626.052.209 0 .417.052.626.105.209.052.365.104.522.208v-1.67a1.562 1.562 0 0 1-.522.21c-.209.052-.417.104-.626.104-.209.052-.418.052-.626.052H58.59V4.696c0-.261.052-.47.105-.574.104-.105.26-.105.521-.105h1.41c.469 0 .886 0 1.2.053.312.052.573.104.73.26.208.157.365.366.47.627.103.26.26.626.364 1.095h.679V3.287h-8.974v.417c.052 0 .104.053.26.053.157.052.261.104.314.156.052.052.104.157.156.313 0 .157.052.313.052.522v9.913c0 .209 0 .417-.052.522 0 .156-.052.26-.156.313-.053.052-.157.156-.313.156-.157.052-.21.052-.261.052v.418h9.287V13.2zM50.191 16.07a4.441 4.441 0 0 0 1.722-.522c.522-.313.94-.73 1.252-1.305.313-.573.47-1.356.47-2.347 0-.73-.105-1.305-.313-1.826-.209-.522-.522-.887-.992-1.253-.47-.313-1.043-.521-1.773-.678-.73-.156-1.618-.209-2.661-.209H46.8V4.852c0-.313.052-.522.209-.626.156-.104.417-.104.834-.104h1.566c.47 0 .887 0 1.2.052.313.052.574.104.73.26.209.157.365.366.47.627.104.26.26.626.365 1.096h.678v-2.87h-9.6v.417c.052 0 .105.053.261.053.157.052.26.104.313.156.052.052.104.157.157.313 0 .157.052.313.052.522V14.66c0 .209 0 .365-.052.522 0 .156-.053.26-.157.313-.052.052-.156.156-.313.156-.156.052-.209.052-.26.052v.47h4.851c.783 0 1.409 0 2.087-.104zm-3.182-.94a.474.474 0 0 1-.157-.365c0-.156-.052-.365-.052-.626V8.713h1.096c.991 0 1.721.26 2.139.783.417.521.626 1.356.626 2.504 0 .783-.052 1.357-.209 1.826-.156.47-.313.783-.574 1.044-.26.208-.521.365-.782.47-.313.051-.626.103-.94.103-.313-.052-.521-.052-.73-.104-.156-.052-.313-.104-.417-.209zM31.565 19.826h94.591v1.252H31.565zM118.591 11.322c.261.365.47.678.73.991.21.313.47.626.679.94.209.312.417.625.678.938.261.366.47.679.679 1.044.208.313.365.678.521.991l4.383.052c-.47-.47-.887-.939-1.357-1.408-.417-.47-.782-.887-1.043-1.148-.418-.47-.783-.887-1.096-1.252-.365-.418-.678-.783-.991-1.148a16.993 16.993 0 0 1-.887-1.148c-.26-.365-.574-.835-.835-1.252l.209-.261c.313-.418.678-.835 1.096-1.357.417-.521.834-1.043 1.304-1.513.47-.521.887-.991 1.356-1.408.47-.418.835-.73 1.2-.992h-3.026c-.104.261-.26.574-.47.94-.208.365-.417.782-.73 1.2-.26.417-.574.886-.834 1.356-.314.47-.574.887-.887 1.304-.313.418-.574.835-.835 1.148-.261.365-.47.626-.626.887l.782 1.096z"/>
        <path d="M118.226 15.757c-.052 0-.104-.053-.26-.053-.157-.052-.262-.104-.314-.156-.052-.052-.104-.157-.156-.313 0-.157-.053-.313-.053-.522V4.8c0-.209 0-.417.053-.522 0-.156.052-.26.156-.313.052-.052.157-.104.313-.156.157-.052.209-.052.261-.052v-.47H114v.417c.052 0 .104.053.26.053.157.052.262.104.314.156.052.052.104.157.156.313 0 .157.053.313.053.522v9.913c0 .209 0 .417-.053.522 0 .156-.052.26-.156.313-.052.052-.157.156-.313.156-.157.052-.209.052-.261.052v.418h4.226v-.365zM90.157 14.609c.156-.73.47-1.774.886-3.079h4.122l.574 1.67c.261.73.47 1.357.574 1.878.157.522.26.887.26 1.148h3.288c-.157-.26-.313-.626-.522-1.043a14.528 14.528 0 0 1-.73-1.826l-2.974-8.453c-.157-.365-.209-.678-.261-.939-.052-.26-.052-.47-.104-.626h-3.705v.418c.052 0 .105.052.261.052.157.052.261.104.313.156.052.052.104.157.157.313v.261c0 .313-.053.626-.157.835l-2.087 5.113c-.365.94-.73 1.774-.991 2.4-.261.626-.522 1.2-.678 1.617-.21.418-.366.783-.522 1.044-.157.26-.261.47-.365.678h2.347c.053-.365.157-.887.314-1.617zm2.973-9.183l1.722 5.217h-3.548l1.826-5.217zM104.817 15.757h-.104c-.052 0-.104-.053-.26-.053-.157-.052-.262-.104-.314-.156-.052-.052-.104-.157-.156-.313 0-.157-.053-.313-.053-.522V9.757h5.01v4.904c0 .209 0 .417-.053.522 0 .156-.052.26-.157.313-.052.052-.156.156-.313.156-.156.052-.208.052-.26.052v.418h4.226v-.418c-.053 0-.105-.052-.261-.052-.157-.052-.261-.104-.313-.156-.052-.053-.105-.157-.157-.313 0-.157-.052-.313-.052-.522V4.696c0-.209 0-.418.052-.522 0-.157.052-.261.157-.313.052-.052.156-.104.313-.157.156-.052.208-.052.26-.052v-.365h-4.121v.417c.052 0 .104.053.26.053.157.052.262.104.314.156.052.052.104.157.156.313 0 .157.052.313.052.522V8.87h-5.008V4.748c0-.209 0-.418.052-.522 0-.156.052-.26.156-.313.053-.052.157-.104.314-.156.156-.053.208-.053.26-.053v-.417h-4.225v.417c.051 0 .104.053.26.053.157.052.261.104.313.156.052.052.105.157.157.313 0 .157.052.313.052.522V14.713c0 .209 0 .365-.052.522 0 .156-.052.26-.157.313-.052.052-.156.156-.313.156-.156.053-.209.053-.26.053v.417h4.225v-.417zM22.957 4.643l-.783-1.095-14.452 8.295L.73 7.826c-.156.47-.26.887-.313 1.357l7.357 4.226 15.183-8.766z"/>
        <path d="M7.722 14.974l-7.513-4.33c-.052.26-.052.573-.052.834 0 6.835 5.53 12.418 12.417 12.418 6.835 0 12.417-5.53 12.417-12.418 0-2.035-.47-3.965-1.356-5.635l-15.913 9.13z"/>
        <path d="M21.183 2.504c-.366-.365-.73-.626-1.096-.939L7.722 8.713 1.774 5.322c-.209.365-.417.782-.626 1.2l6.522 3.756 13.513-7.774z"/>
        <path d="M18.835.73c-.47-.26-.94-.521-1.461-.73L7.722 5.583 3.392 3.13c-.314.313-.575.679-.888 1.044L7.67 7.148 18.835.73z"/>
    </g>
</svg>
